Fir_filter.sim/sim_1/behav/xsim/simulate.log
Time resolution is 1 ps
Time=0 | xn= 1000 | yn=    x
Time=20000 | xn= 2000 | yn=    x
Time=40000 | xn= 3000 | yn=    x
Time=45000 | xn= 3000 | yn= 1500
Time=55000 | xn= 3000 | yn= 2000
Time=60000 | xn= 4000 | yn= 2000
Time=65000 | xn= 4000 | yn= 2500
Time=75000 | xn= 4000 | yn= 3000
Time=80000 | xn= 5000 | yn= 3000
Time=85000 | xn= 5000 | yn= 3500
Time=95000 | xn= 5000 | yn= 4000
Time=100000 | xn= 6000 | yn= 4000
Time=105000 | xn= 6000 | yn= 4500
Time=115000 | xn= 6000 | yn= 5000
Time=120000 | xn= 7000 | yn= 5000
Time=125000 | xn= 7000 | yn= 5500
Time=135000 | xn= 7000 | yn= 6000
Time=140000 | xn= 8000 | yn= 6000
Time=145000 | xn= 8000 | yn= 6500
Time=155000 | xn= 8000 | yn= 7000
Time=160000 | xn= 9000 | yn= 7000
Time=165000 | xn= 9000 | yn= 7500
Time=175000 | xn= 9000 | yn= 8000
Time=180000 | xn=10000 | yn= 8000
Time=185000 | xn=10000 | yn= 8500
Time=195000 | xn=10000 | yn= 9000
Time=205000 | xn=10000 | yn= 9500
Time=215000 | xn=10000 | yn= 9750
Time=225000 | xn=10000 | yn=10000
$stop called at time : 280 ns : File "D:/Vivado_projects/Fir_filter/Fir_filter.srcs/sources_1/new/fir_filter_tb.v" Line 72
